<?xml version="1.0" encoding="UTF-8" standalone="no"?>

<svg width="60" height="60" viewBox="0 0 60 60"
   version="1.1"
   xmlns="http://www.w3.org/2000/svg"
   xmlns:svg="http://www.w3.org/2000/svg">
   <g fill="#ffffff">
    <rect width="10" height="20" x="0" y="0" />
    <path d="M 40,0 30,20 V 30 H 40 L 50,10 V 20 H 60 V 0 H 50 Z" />
    <rect width="10" height="20" x="10" y="20" />
    <path d="M 40,30 30,50 V 40 H 20 V 60 H 30 40 L 50,40 V 30 Z" />
  </g>
</svg>
